\begin{thebibliography}{7}
% this bibliography was produced with the style dinat.bst v2.5
\makeatletter
\newcommand{\dinatlabel}[1]%
{\ifNAT@numbers\else\NAT@biblabelnum{#1}\hspace{2\labelsep}\fi}
\makeatother
\expandafter\ifx\csname natexlab\endcsname\relax\def\natexlab#1{#1}\fi
\expandafter\ifx\csname url\endcsname\relax\def\url#1{\texttt{#1}}\fi

\bibitem[Argyle(1979)]{argyle1979korpersprache}
\dinatlabel{Argyle 1979} \textsc{Argyle}, Michael:
\newblock \emph{K{\"o}rpersprache und Kommunikation}.
\newblock Junfermann Paderborn, 1979

\bibitem[Ben(2020")]{vrchat_numbers}
\dinatlabel{Ben 2020"} \textsc{Ben}, Lang:
\newblock \emph{Social VR App ‘VRChat’ is Seeing Record Usage Amidst the
  Pandemic}.
\newblock 2020". --
\newblock URL
\url{https://www.roadtovr.com/vrchat-record-users-coronavirus/}. --
\newblock [Online; accessed 18-04-2021]

\bibitem[Discord(2021)]{discordhp}
\dinatlabel{Discord 2021} \textsc{Discord}:
\newblock \emph{Discord}.
\newblock 2021. --
\newblock URL \url{\url{https://discord.com/}}. --
\newblock [Online; accessed 18-04-2021]

\bibitem[Manuela(2021)]{agile_de}
\dinatlabel{Manuela 2021} \textsc{Manuela}, Lenz:
\newblock \emph{Agiles Projektmanagement: Definition, Werte und Methoden}.
\newblock 2021. --
\newblock URL \url{\url{https://www.experte.de/projektmanagement/agile}}. --
\newblock [Online; accessed 18-04-2021]

\bibitem[Sascha(2021)]{sascha_agile}
\dinatlabel{Sascha 2021} \textsc{Sascha}, Hampl:
\newblock \emph{The "Real"​ Agile Worflow}.
\newblock 2021. --
\newblock URL
\url{https://www.linkedin.com/pulse/real-agile-workflow-sascha-hampl/?trackingId=9oWGAeb8SXaCTFeBBahmvw%3D%3D}.
  --
\newblock [Online; accessed 18-04-2021]

\bibitem[Wikipedia(2020{\natexlab{a}})]{wiki:abw}
\dinatlabel{Wikipedia 2020{\natexlab{a}}} \textsc{Wikipedia}:
\newblock \emph{Activity Based Working --- {W}ikipedia{,} The Free
  Encyclopedia}.
\newblock 2020. --
\newblock URL \url{\url{https://de.wikipedia.org/wiki/Activity_Based_Working}}.
  --
\newblock [Online; accessed 18-04-2021]

\bibitem[Wikipedia(2020{\natexlab{b}})]{wiki:rapidp}
\dinatlabel{Wikipedia 2020{\natexlab{b}}} \textsc{Wikipedia}:
\newblock \emph{Rapid Prototyping --- {W}ikipedia{,} The Free Encyclopedia}.
\newblock 2020. --
\newblock URL \url{\url{https://de.wikipedia.org/wiki/Rapid_Prototyping}}. --
\newblock [Online; accessed 18-04-2021]

\end{thebibliography}
