\relax 
\providecommand\hyper@newdestlabel[2]{}
\providecommand*\new@tpo@label[2]{}
\providecommand\babel@aux[2]{}
\@nameuse{bbl@beforestart}
\catcode `"\active 
\providecommand\HyperFirstAtBeginDocument{\AtBeginDocument}
\HyperFirstAtBeginDocument{\ifx\hyper@anchor\@undefined
\global\let\oldcontentsline\contentsline
\gdef\contentsline#1#2#3#4{\oldcontentsline{#1}{#2}{#3}}
\global\let\oldnewlabel\newlabel
\gdef\newlabel#1#2{\newlabelxx{#1}#2}
\gdef\newlabelxx#1#2#3#4#5#6{\oldnewlabel{#1}{{#2}{#3}}}
\AtEndDocument{\ifx\hyper@anchor\@undefined
\let\contentsline\oldcontentsline
\let\newlabel\oldnewlabel
\fi}
\fi}
\global\let\hyper@last\relax 
\gdef\HyperFirstAtBeginDocument#1{#1}
\providecommand\HyField@AuxAddToFields[1]{}
\providecommand\HyField@AuxAddToCoFields[2]{}
\providecommand\BKM@entry[2]{}
\babel@aux{ngerman}{}
\BKM@entry{id=1,dest={636861707465722A2E36},srcline={187}}{416262696C64756E67737665727A656963686E6973}
\@writefile{toc}{\contentsline {chapter}{\nonumberline Abbildungsverzeichnis}{9}{chapter*.6}\protected@file@percent }
\BKM@entry{id=2,dest={636861707465722A2E37},srcline={188}}{546162656C6C656E7665727A656963686E6973}
\@writefile{toc}{\contentsline {chapter}{\nonumberline Tabellenverzeichnis}{10}{chapter*.7}\protected@file@percent }
\BKM@entry{id=3,dest={636861707465722E31},srcline={4}}{45696E6C656974756E67}
\@writefile{toc}{\contentsline {chapter}{\numberline {1}Einleitung}{11}{chapter.1}\protected@file@percent }
\@writefile{lof}{\addvspace {10\p@ }}
\@writefile{lot}{\addvspace {10\p@ }}
\@writefile{lol}{\addvspace {10\p@ }}
\BKM@entry{id=4,dest={636861707465722E32},srcline={8}}{50726F6A656B746D616E6167656D656E74}
\BKM@entry{id=5,dest={73656374696F6E2E322E31},srcline={11}}{4D657461696E666F726D6174696F6E656E}
\BKM@entry{id=6,dest={73756273656374696F6E2E322E312E31},srcline={12}}{50726F6A656B747465616D}
\BKM@entry{id=7,dest={73756273656374696F6E2E322E312E32},srcline={18}}{50726F6A656B746265747265756572}
\BKM@entry{id=8,dest={73756273656374696F6E2E322E312E33},srcline={24}}{50726F6A656B74706172746E6572}
\@writefile{toc}{\contentsline {chapter}{\numberline {2}Projektmanagement}{12}{chapter.2}\protected@file@percent }
\@writefile{lof}{\addvspace {10\p@ }}
\@writefile{lot}{\addvspace {10\p@ }}
\@writefile{lol}{\addvspace {10\p@ }}
\@writefile{toc}{\contentsline {section}{\numberline {2.1}Metainformationen}{12}{section.2.1}\protected@file@percent }
\@writefile{toc}{\contentsline {subsection}{\numberline {2.1.1}Projektteam}{12}{subsection.2.1.1}\protected@file@percent }
\@writefile{toc}{\contentsline {subsection}{\numberline {2.1.2}Projektbetreuer}{12}{subsection.2.1.2}\protected@file@percent }
\BKM@entry{id=9,dest={73656374696F6E2E322E32},srcline={30}}{566F726572686562756E67656E}
\BKM@entry{id=10,dest={73756273656374696F6E2E322E322E31},srcline={33}}{4973742D5A757374616E64}
\BKM@entry{id=11,dest={73756273656374696F6E2E322E322E32},srcline={36}}{536F6C6C2D5A757374616E64}
\BKM@entry{id=12,dest={73756273656374696F6E2E322E322E33},srcline={39}}{50726F6A656B74756D66656C64616E616C797365}
\@writefile{toc}{\contentsline {subsection}{\numberline {2.1.3}Projektpartner}{13}{subsection.2.1.3}\protected@file@percent }
\@writefile{toc}{\contentsline {section}{\numberline {2.2}Vorerhebungen}{13}{section.2.2}\protected@file@percent }
\@writefile{toc}{\contentsline {subsection}{\numberline {2.2.1}Ist-Zustand}{13}{subsection.2.2.1}\protected@file@percent }
\@writefile{toc}{\contentsline {subsection}{\numberline {2.2.2}Soll-Zustand}{13}{subsection.2.2.2}\protected@file@percent }
\@writefile{toc}{\contentsline {subsection}{\numberline {2.2.3}Projektumfeldanalyse}{14}{subsection.2.2.3}\protected@file@percent }
\@writefile{lot}{\contentsline {table}{\numberline {2.1}{\ignorespaces Klassifizierung der Stakeholder\relax }}{14}{table.caption.8}\protected@file@percent }
\providecommand*\caption@xref[2]{\@setref\relax\@undefined{#1}}
\newlabel{tab:stakeholder}{{2.1}{14}{Klassifizierung der Stakeholder\relax }{table.caption.8}{}}
\newlabel{tab:stakeholder@cref}{{[table][1][2]2.1}{[1][14][]14}}
\BKM@entry{id=13,dest={73756273656374696F6E2E322E322E34},srcline={102}}{526973696B6F616E616C797365}
\@writefile{lof}{\contentsline {figure}{\numberline {2.1}{\ignorespaces Grafische Darstellung der Stakeholder\relax }}{15}{figure.caption.9}\protected@file@percent }
\newlabel{fig:stakeholder}{{2.1}{15}{Grafische Darstellung der Stakeholder\relax }{figure.caption.9}{}}
\newlabel{fig:stakeholder@cref}{{[figure][1][2]2.1}{[1][15][]15}}
\@writefile{lot}{\contentsline {table}{\numberline {2.2}{\ignorespaces Maßnahmen pro Stakeholder\relax }}{15}{table.caption.10}\protected@file@percent }
\newlabel{tab:massnahmen}{{2.2}{15}{Maßnahmen pro Stakeholder\relax }{table.caption.10}{}}
\newlabel{tab:massnahmen@cref}{{[table][2][2]2.2}{[1][15][]15}}
\@writefile{toc}{\contentsline {subsection}{\numberline {2.2.4}Risikoanalyse}{16}{subsection.2.2.4}\protected@file@percent }
\@writefile{lot}{\contentsline {table}{\numberline {2.3}{\ignorespaces Bewertung der identifizierten Risiken\relax }}{16}{table.caption.11}\protected@file@percent }
\newlabel{tab:risiken}{{2.3}{16}{Bewertung der identifizierten Risiken\relax }{table.caption.11}{}}
\newlabel{tab:risiken@cref}{{[table][3][2]2.3}{[1][16][]16}}
\BKM@entry{id=14,dest={73656374696F6E2E322E33},srcline={144}}{50666C69636874656E68656674}
\BKM@entry{id=15,dest={73756273656374696F6E2E322E332E31},srcline={147}}{5A69656C7365747A756E67}
\@writefile{lof}{\contentsline {figure}{\numberline {2.2}{\ignorespaces Risikomatrix\relax }}{17}{figure.caption.12}\protected@file@percent }
\newlabel{fig:risikomatrix}{{2.2}{17}{Risikomatrix\relax }{figure.caption.12}{}}
\newlabel{fig:risikomatrix@cref}{{[figure][2][2]2.2}{[1][17][]17}}
\@writefile{toc}{\contentsline {section}{\numberline {2.3}Pflichtenheft}{17}{section.2.3}\protected@file@percent }
\@writefile{toc}{\contentsline {subsection}{\numberline {2.3.1}Zielsetzung}{17}{subsection.2.3.1}\protected@file@percent }
\BKM@entry{id=16,dest={73756273656374696F6E2E322E332E32},srcline={150}}{50726F64756B7465696E7361747A}
\BKM@entry{id=17,dest={73756273656374696F6E2E322E332E33},srcline={153}}{46756E6B74696F6E616C69745C33343474656E}
\@writefile{toc}{\contentsline {subsection}{\numberline {2.3.2}Produkteinsatz}{18}{subsection.2.3.2}\protected@file@percent }
\@writefile{toc}{\contentsline {subsection}{\numberline {2.3.3}Funktionalitäten}{18}{subsection.2.3.3}\protected@file@percent }
\BKM@entry{id=18,dest={73756273656374696F6E2E322E332E34},srcline={173}}{54657374737A656E617269656E20756E642054657374665C3334346C6C65}
\@writefile{toc}{\contentsline {subsubsection}{\nonumberline Funktionale Anforderungen}{19}{subsubsection*.14}\protected@file@percent }
\@writefile{toc}{\contentsline {subsubsection}{\nonumberline Nicht-funktionale Anforderungen}{19}{subsubsection*.16}\protected@file@percent }
\BKM@entry{id=19,dest={73756273656374696F6E2E322E332E35},srcline={252}}{4C696566657276657265696E626172756E67656E}
\@writefile{toc}{\contentsline {subsection}{\numberline {2.3.4}Testszenarien und Testfälle}{20}{subsection.2.3.4}\protected@file@percent }
\BKM@entry{id=20,dest={73656374696F6E2E322E34},srcline={255}}{506C616E756E67}
\@writefile{lot}{\contentsline {table}{\numberline {2.4}{\ignorespaces Testfall (Bezeichnung)\relax }}{21}{table.caption.17}\protected@file@percent }
\@writefile{lot}{\contentsline {table}{\numberline {2.5}{\ignorespaces Testfall (Bezeichnung)\relax }}{21}{table.caption.18}\protected@file@percent }
\@writefile{lot}{\contentsline {table}{\numberline {2.6}{\ignorespaces Testfall (Bezeichnung)\relax }}{21}{table.caption.19}\protected@file@percent }
\@writefile{toc}{\contentsline {subsection}{\numberline {2.3.5}Liefervereinbarungen}{21}{subsection.2.3.5}\protected@file@percent }
\BKM@entry{id=21,dest={73756273656374696F6E2E322E342E31},srcline={258}}{50726F6A656B74737472756B747572706C616E}
\BKM@entry{id=22,dest={73756273656374696F6E2E322E342E32},srcline={268}}{50726F6A656B7461626C617566706C616E}
\@writefile{toc}{\contentsline {section}{\numberline {2.4}Planung}{22}{section.2.4}\protected@file@percent }
\@writefile{toc}{\contentsline {subsection}{\numberline {2.4.1}Projektstrukturplan}{22}{subsection.2.4.1}\protected@file@percent }
\@writefile{lof}{\contentsline {figure}{\numberline {2.3}{\ignorespaces Projektstrukturplan\relax }}{22}{figure.caption.20}\protected@file@percent }
\newlabel{fig:psp}{{2.3}{22}{Projektstrukturplan\relax }{figure.caption.20}{}}
\newlabel{fig:psp@cref}{{[figure][3][2]2.3}{[1][22][]22}}
\BKM@entry{id=23,dest={73756273656374696F6E2E322E342E33},srcline={279}}{41626E61686D656B726974657269656E}
\BKM@entry{id=24,dest={73756273656374696F6E2E322E342E34},srcline={288}}{4576616C756174696F6E73706C616E}
\@writefile{toc}{\contentsline {subsection}{\numberline {2.4.2}Projektablaufplan}{23}{subsection.2.4.2}\protected@file@percent }
\@writefile{lof}{\contentsline {figure}{\numberline {2.4}{\ignorespaces Projektablaufplan\relax }}{23}{figure.caption.21}\protected@file@percent }
\newlabel{fig:pap}{{2.4}{23}{Projektablaufplan\relax }{figure.caption.21}{}}
\newlabel{fig:pap@cref}{{[figure][4][2]2.4}{[1][23][]23}}
\@writefile{toc}{\contentsline {subsection}{\numberline {2.4.3}Abnahmekriterien}{23}{subsection.2.4.3}\protected@file@percent }
\@writefile{toc}{\contentsline {subsection}{\numberline {2.4.4}Evaluationsplan}{24}{subsection.2.4.4}\protected@file@percent }
\BKM@entry{id=25,dest={636861707465722E33},srcline={291}}{566F727374656C6C756E67206465732050726F64756B7473}
\@writefile{toc}{\contentsline {chapter}{\numberline {3}Vorstellung des Produkts}{25}{chapter.3}\protected@file@percent }
\@writefile{lof}{\addvspace {10\p@ }}
\@writefile{lot}{\addvspace {10\p@ }}
\@writefile{lol}{\addvspace {10\p@ }}
\BKM@entry{id=26,dest={636861707465722E34},srcline={295}}{45696E67657365747A746520546563686E6F6C6F6769656E}
\@writefile{toc}{\contentsline {chapter}{\numberline {4}Eingesetzte Technologien}{26}{chapter.4}\protected@file@percent }
\@writefile{lof}{\addvspace {10\p@ }}
\@writefile{lot}{\addvspace {10\p@ }}
\@writefile{lol}{\addvspace {10\p@ }}
\BKM@entry{id=27,dest={636861707465722E35},srcline={299}}{50726F626C656D616E616C797365}
\BKM@entry{id=28,dest={73656374696F6E2E352E31},srcline={302}}{5573652D436173652D416E616C797365}
\@writefile{toc}{\contentsline {chapter}{\numberline {5}Problemanalyse}{27}{chapter.5}\protected@file@percent }
\@writefile{lof}{\addvspace {10\p@ }}
\@writefile{lot}{\addvspace {10\p@ }}
\@writefile{lol}{\addvspace {10\p@ }}
\@writefile{toc}{\contentsline {section}{\numberline {5.1}Use-Case-Analyse}{27}{section.5.1}\protected@file@percent }
\BKM@entry{id=29,dest={73656374696F6E2E352E32},srcline={384}}{446F6D61696E2D436C6173732D4D6F64656C6C696E67}
\@writefile{lof}{\contentsline {figure}{\numberline {5.1}{\ignorespaces Use-Case-Diagramm\relax }}{28}{figure.caption.22}\protected@file@percent }
\newlabel{fig:usecasediagram}{{5.1}{28}{Use-Case-Diagramm\relax }{figure.caption.22}{}}
\newlabel{fig:usecasediagram@cref}{{[figure][1][5]5.1}{[1][28][]28}}
\@writefile{lot}{\contentsline {table}{\numberline {5.1}{\ignorespaces Use-Case (Bezeichnung)\relax }}{28}{table.caption.23}\protected@file@percent }
\newlabel{tab:uc1}{{5.1}{28}{Use-Case (Bezeichnung)\relax }{table.caption.23}{}}
\newlabel{tab:uc1@cref}{{[table][1][5]5.1}{[1][28][]28}}
\BKM@entry{id=30,dest={73656374696F6E2E352E33},srcline={387}}{557365722D496E746572666163652044657369676E}
\@writefile{lot}{\contentsline {table}{\numberline {5.2}{\ignorespaces Use-Case (Bezeichnung)\relax }}{29}{table.caption.24}\protected@file@percent }
\newlabel{tab:uc2}{{5.2}{29}{Use-Case (Bezeichnung)\relax }{table.caption.24}{}}
\newlabel{tab:uc2@cref}{{[table][2][5]5.2}{[1][28][]29}}
\@writefile{lot}{\contentsline {table}{\numberline {5.3}{\ignorespaces Use-Case (Bezeichnung)\relax }}{29}{table.caption.25}\protected@file@percent }
\newlabel{tab:uc3}{{5.3}{29}{Use-Case (Bezeichnung)\relax }{table.caption.25}{}}
\newlabel{tab:uc3@cref}{{[table][3][5]5.3}{[1][28][]29}}
\@writefile{toc}{\contentsline {section}{\numberline {5.2}Domain-Class-Modelling}{29}{section.5.2}\protected@file@percent }
\@writefile{toc}{\contentsline {section}{\numberline {5.3}User-Interface Design}{29}{section.5.3}\protected@file@percent }
\BKM@entry{id=31,dest={636861707465722E36},srcline={390}}{53797374656D656E7477757266}
\BKM@entry{id=32,dest={73656374696F6E2E362E31},srcline={393}}{417263686974656B747572}
\BKM@entry{id=33,dest={73756273656374696F6E2E362E312E31},srcline={396}}{44657369676E20646572204B6F6D706F6E656E74656E}
\BKM@entry{id=34,dest={73756273656374696F6E2E362E312E32},srcline={398}}{42656E75747A65727363686E6974747374656C6C656E}
\BKM@entry{id=35,dest={73756273656374696F6E2E362E312E33},srcline={400}}{446174656E68616C74756E67736B6F6E7A657074}
\@writefile{toc}{\contentsline {chapter}{\numberline {6}Systementwurf}{30}{chapter.6}\protected@file@percent }
\@writefile{lof}{\addvspace {10\p@ }}
\@writefile{lot}{\addvspace {10\p@ }}
\@writefile{lol}{\addvspace {10\p@ }}
\@writefile{toc}{\contentsline {section}{\numberline {6.1}Architektur}{30}{section.6.1}\protected@file@percent }
\@writefile{toc}{\contentsline {subsection}{\numberline {6.1.1}Design der Komponenten}{30}{subsection.6.1.1}\protected@file@percent }
\@writefile{toc}{\contentsline {subsection}{\numberline {6.1.2}Benutzerschnittstellen}{30}{subsection.6.1.2}\protected@file@percent }
\BKM@entry{id=36,dest={73756273656374696F6E2E362E312E34},srcline={402}}{4B6F6E7A65707420665C33373472204175736E61686D65626568616E646C756E67}
\BKM@entry{id=37,dest={73756273656374696F6E2E362E312E35},srcline={404}}{53696368657268656974736B6F6E7A657074}
\BKM@entry{id=38,dest={73756273656374696F6E2E362E312E36},srcline={406}}{44657369676E206465722054657374756D676562756E67}
\BKM@entry{id=39,dest={73756273656374696F6E2E362E312E37},srcline={408}}{44657369676E2064657220417573665C3337346872756E6773756D676562756E67}
\BKM@entry{id=40,dest={73656374696F6E2E362E32},srcline={411}}{44657461696C656E7477757266}
\@writefile{toc}{\contentsline {subsection}{\numberline {6.1.3}Datenhaltungskonzept}{31}{subsection.6.1.3}\protected@file@percent }
\@writefile{toc}{\contentsline {subsection}{\numberline {6.1.4}Konzept für Ausnahmebehandlung}{31}{subsection.6.1.4}\protected@file@percent }
\@writefile{toc}{\contentsline {subsection}{\numberline {6.1.5}Sicherheitskonzept}{31}{subsection.6.1.5}\protected@file@percent }
\@writefile{toc}{\contentsline {subsection}{\numberline {6.1.6}Design der Testumgebung}{31}{subsection.6.1.6}\protected@file@percent }
\@writefile{toc}{\contentsline {subsection}{\numberline {6.1.7}Design der Ausführungsumgebung}{31}{subsection.6.1.7}\protected@file@percent }
\@writefile{toc}{\contentsline {section}{\numberline {6.2}Detailentwurf}{31}{section.6.2}\protected@file@percent }
\BKM@entry{id=41,dest={636861707465722E37},srcline={414}}{496D706C656D656E74696572756E67}
\@writefile{toc}{\contentsline {chapter}{\numberline {7}Implementierung}{33}{chapter.7}\protected@file@percent }
\@writefile{lof}{\addvspace {10\p@ }}
\@writefile{lot}{\addvspace {10\p@ }}
\@writefile{lol}{\addvspace {10\p@ }}
\BKM@entry{id=42,dest={636861707465722E38},srcline={419}}{4465706C6F796D656E74}
\@writefile{toc}{\contentsline {chapter}{\numberline {8}Deployment}{34}{chapter.8}\protected@file@percent }
\@writefile{lof}{\addvspace {10\p@ }}
\@writefile{lot}{\addvspace {10\p@ }}
\@writefile{lol}{\addvspace {10\p@ }}
\BKM@entry{id=43,dest={636861707465722E39},srcline={423}}{5465737473}
\BKM@entry{id=44,dest={73656374696F6E2E392E31},srcline={425}}{53797374656D7465737473}
\BKM@entry{id=45,dest={73656374696F6E2E392E32},srcline={427}}{416B7A657074616E7A7465737473}
\@writefile{toc}{\contentsline {chapter}{\numberline {9}Tests}{35}{chapter.9}\protected@file@percent }
\@writefile{lof}{\addvspace {10\p@ }}
\@writefile{lot}{\addvspace {10\p@ }}
\@writefile{lol}{\addvspace {10\p@ }}
\@writefile{toc}{\contentsline {section}{\numberline {9.1}Systemtests}{35}{section.9.1}\protected@file@percent }
\@writefile{toc}{\contentsline {section}{\numberline {9.2}Akzeptanztests}{35}{section.9.2}\protected@file@percent }
\BKM@entry{id=46,dest={636861707465722E3130},srcline={431}}{4576616C756174696F6E}
\BKM@entry{id=47,dest={73656374696F6E2E31302E31},srcline={434}}{50726F6A656B746576616C756174696F6E}
\BKM@entry{id=48,dest={73656374696F6E2E31302E32},srcline={437}}{416B7A657074616E7A7465737473}
\BKM@entry{id=49,dest={73656374696F6E2E31302E33},srcline={440}}{5265735C3337346D6565}
\@writefile{toc}{\contentsline {chapter}{\numberline {10}Evaluation}{36}{chapter.10}\protected@file@percent }
\@writefile{lof}{\addvspace {10\p@ }}
\@writefile{lot}{\addvspace {10\p@ }}
\@writefile{lol}{\addvspace {10\p@ }}
\@writefile{toc}{\contentsline {section}{\numberline {10.1}Projektevaluation}{36}{section.10.1}\protected@file@percent }
\@writefile{toc}{\contentsline {section}{\numberline {10.2}Akzeptanztests}{36}{section.10.2}\protected@file@percent }
\@writefile{toc}{\contentsline {section}{\numberline {10.3}Resümee}{36}{section.10.3}\protected@file@percent }
\BKM@entry{id=50,dest={636861707465722E3131},srcline={444}}{42656E75747A657268616E6462756368}
\@writefile{toc}{\contentsline {chapter}{\numberline {11}Benutzerhandbuch}{37}{chapter.11}\protected@file@percent }
\@writefile{lof}{\addvspace {10\p@ }}
\@writefile{lot}{\addvspace {10\p@ }}
\@writefile{lol}{\addvspace {10\p@ }}
\BKM@entry{id=51,dest={636861707465722E3132},srcline={447}}{5A7573616D6D656E66617373756E67}
\bibstyle{dinat}
\bibdata{Literatur_Verzeichnis}
\@writefile{toc}{\contentsline {chapter}{\numberline {12}Zusammenfassung}{38}{chapter.12}\protected@file@percent }
\@writefile{lof}{\addvspace {10\p@ }}
\@writefile{lot}{\addvspace {10\p@ }}
\@writefile{lol}{\addvspace {10\p@ }}
\BKM@entry{id=52,dest={636861707465722A2E3236},srcline={1}}{4C69746572617475727665727A656963686E6973}
\@writefile{toc}{\contentsline {chapter}{\nonumberline Literaturverzeichnis}{39}{chapter*.26}\protected@file@percent }
\@writefile{lof}{\addvspace {10\p@ }}
\@writefile{lot}{\addvspace {10\p@ }}
\@writefile{lol}{\addvspace {10\p@ }}
\BKM@entry{id=53,dest={617070656E6469782E41},srcline={1}}{416E68616E67}
\@writefile{toc}{\contentsline {chapter}{\numberline {A}Anhang}{40}{appendix.A}\protected@file@percent }
\@writefile{lof}{\addvspace {10\p@ }}
\@writefile{lot}{\addvspace {10\p@ }}
\@writefile{lol}{\addvspace {10\p@ }}
\global\csname @altsecnumformattrue\endcsname
\global\@namedef{scr@dte@chapter@lastmaxnumwidth}{22.14648pt}
\global\@namedef{scr@dte@section@lastmaxnumwidth}{28.8528pt}
\global\@namedef{scr@dte@subsection@lastmaxnumwidth}{32.11679pt}
\global\@namedef{scr@dte@table@lastmaxnumwidth}{22.97781pt}
\global\@namedef{scr@dte@figure@lastmaxnumwidth}{22.97781pt}
\@writefile{toc}{\providecommand\tocbasic@end@toc@file{}\tocbasic@end@toc@file}
\@writefile{lof}{\providecommand\tocbasic@end@toc@file{}\tocbasic@end@toc@file}
\@writefile{lot}{\providecommand\tocbasic@end@toc@file{}\tocbasic@end@toc@file}
\gdef \@abspage@last{40}
