\relax 
\providecommand\hyper@newdestlabel[2]{}
\providecommand*\new@tpo@label[2]{}
\providecommand\babel@aux[2]{}
\@nameuse{bbl@beforestart}
\catcode `"\active 
\providecommand\HyperFirstAtBeginDocument{\AtBeginDocument}
\HyperFirstAtBeginDocument{\ifx\hyper@anchor\@undefined
\global\let\oldcontentsline\contentsline
\gdef\contentsline#1#2#3#4{\oldcontentsline{#1}{#2}{#3}}
\global\let\oldnewlabel\newlabel
\gdef\newlabel#1#2{\newlabelxx{#1}#2}
\gdef\newlabelxx#1#2#3#4#5#6{\oldnewlabel{#1}{{#2}{#3}}}
\AtEndDocument{\ifx\hyper@anchor\@undefined
\let\contentsline\oldcontentsline
\let\newlabel\oldnewlabel
\fi}
\fi}
\global\let\hyper@last\relax 
\gdef\HyperFirstAtBeginDocument#1{#1}
\providecommand\HyField@AuxAddToFields[1]{}
\providecommand\HyField@AuxAddToCoFields[2]{}
\providecommand\BKM@entry[2]{}
\babel@aux{ngerman}{}
\citation{wiki:rapidp}
\citation{unity:hp}
\citation{unity:packages}
\citation{wiki:dod}
\citation{wiki:ecs}
\citation{gameprogrammingpatterns}
\citation{argyle1979korpersprache}
\citation{wiki:rapidp}
\citation{unity:hp}
\citation{unity:packages}
\citation{wiki:dod}
\citation{wiki:ecs}
\citation{gameprogrammingpatterns}
\citation{argyle1979korpersprache}
\BKM@entry{id=1,dest={636861707465722A2E36},srcline={190}}{416262696C64756E67737665727A656963686E6973}
\@writefile{toc}{\contentsline {chapter}{\nonumberline Abbildungsverzeichnis}{8}{chapter*.6}\protected@file@percent }
\BKM@entry{id=2,dest={636861707465722E31},srcline={3}}{45696E6C656974756E67}
\citation{argyle1979korpersprache}
\@writefile{toc}{\contentsline {chapter}{\numberline {1}Einleitung}{9}{chapter.1}\protected@file@percent }
\@writefile{lof}{\addvspace {10\p@ }}
\@writefile{lot}{\addvspace {10\p@ }}
\@writefile{lol}{\addvspace {10\p@ }}
\BKM@entry{id=3,dest={636861707465722E32},srcline={6}}{426567726966667362657374696D6D756E67656E}
\citation{unity:hp}
\citation{unity:DOTS}
\citation{wiki:dod}
\citation{wiki:soa}
\citation{wiki:ecs}
\citation{vivox}
\citation{unity:mlapi}
\@writefile{toc}{\contentsline {chapter}{\numberline {2}Begriffsbestimmungen}{10}{chapter.2}\protected@file@percent }
\@writefile{lof}{\addvspace {10\p@ }}
\@writefile{lot}{\addvspace {10\p@ }}
\@writefile{lol}{\addvspace {10\p@ }}
\BKM@entry{id=4,dest={636861707465722E33},srcline={30}}{4D657461696E666F726D6174696F6E656E}
\BKM@entry{id=5,dest={73656374696F6E2E332E31},srcline={31}}{50726F6A656B747465616D}
\BKM@entry{id=6,dest={73656374696F6E2E332E32},srcline={37}}{50726F6A656B746265747265756572}
\BKM@entry{id=7,dest={73656374696F6E2E332E33},srcline={43}}{50726F6A656B74706172746E6572}
\@writefile{toc}{\contentsline {chapter}{\numberline {3}Metainformationen}{12}{chapter.3}\protected@file@percent }
\@writefile{lof}{\addvspace {10\p@ }}
\@writefile{lot}{\addvspace {10\p@ }}
\@writefile{lol}{\addvspace {10\p@ }}
\@writefile{toc}{\contentsline {section}{\numberline {3.1}Projektteam}{12}{section.3.1}\protected@file@percent }
\@writefile{toc}{\contentsline {section}{\numberline {3.2}Projektbetreuer}{12}{section.3.2}\protected@file@percent }
\@writefile{toc}{\contentsline {section}{\numberline {3.3}Projektpartner}{12}{section.3.3}\protected@file@percent }
\BKM@entry{id=8,dest={636861707465722E34},srcline={50}}{50726F6A656B74204D616E6167656D656E74}
\BKM@entry{id=9,dest={73656374696F6E2E342E31},srcline={51}}{4167696C65}
\citation{sascha_agile}
\citation{agile_de}
\@writefile{toc}{\contentsline {chapter}{\numberline {4}Projekt Management}{13}{chapter.4}\protected@file@percent }
\@writefile{lof}{\addvspace {10\p@ }}
\@writefile{lot}{\addvspace {10\p@ }}
\@writefile{lol}{\addvspace {10\p@ }}
\@writefile{toc}{\contentsline {section}{\numberline {4.1}Agile}{13}{section.4.1}\protected@file@percent }
\BKM@entry{id=10,dest={73656374696F6E2E342E32},srcline={54}}{4973742D5A757374616E64}
\citation{vrchat_numbers}
\BKM@entry{id=11,dest={73656374696F6E2E342E33},srcline={57}}{536F6C6C2D5A757374616E64}
\citation{wiki:abw}
\@writefile{toc}{\contentsline {section}{\numberline {4.2}Ist-Zustand}{14}{section.4.2}\protected@file@percent }
\@writefile{toc}{\contentsline {section}{\numberline {4.3}Soll-Zustand}{14}{section.4.3}\protected@file@percent }
\BKM@entry{id=12,dest={636861707465722E35},srcline={60}}{566F722D456E7477757266}
\@writefile{toc}{\contentsline {chapter}{\numberline {5}Vor-Entwurf}{15}{chapter.5}\protected@file@percent }
\@writefile{lof}{\addvspace {10\p@ }}
\@writefile{lot}{\addvspace {10\p@ }}
\@writefile{lol}{\addvspace {10\p@ }}
\@writefile{lof}{\contentsline {figure}{\numberline {5.1}{\ignorespaces Diagramm Vorentwurf}}{15}{figure.caption.7}\protected@file@percent }
\providecommand*\caption@xref[2]{\@setref\relax\@undefined{#1}}
\newlabel{fig:sketchpredesign}{{5.1}{15}{Diagramm Vorentwurf}{figure.caption.7}{}}
\newlabel{fig:sketchpredesign@cref}{{[figure][1][5]5.1}{[1][15][]15}}
\BKM@entry{id=13,dest={636861707465722E36},srcline={70}}{52617069642050726F746F747970696E67205C284578706572696D656E74616C2050726F746F747970696E675C29}
\citation{wiki:rapidp}
\BKM@entry{id=14,dest={73656374696F6E2E362E31},srcline={73}}{50726F746F7479702031202D20506172736563}
\BKM@entry{id=15,dest={73756273656374696F6E2E362E312E31},srcline={74}}{426573636872656962756E67}
\citation{parsecbest}
\citation{parsec}
\citation{parsec:SDK}
\BKM@entry{id=16,dest={73756273656374696F6E2E362E312E32},srcline={77}}{5265736561726368}
\citation{unity:chooseNetcode}
\@writefile{toc}{\contentsline {chapter}{\numberline {6}Rapid Prototyping (Experimental Prototyping)}{16}{chapter.6}\protected@file@percent }
\@writefile{lof}{\addvspace {10\p@ }}
\@writefile{lot}{\addvspace {10\p@ }}
\@writefile{lol}{\addvspace {10\p@ }}
\@writefile{toc}{\contentsline {section}{\numberline {6.1}Prototyp 1 - Parsec}{16}{section.6.1}\protected@file@percent }
\@writefile{toc}{\contentsline {subsection}{\numberline {6.1.1}Beschreibung}{16}{subsection.6.1.1}\protected@file@percent }
\BKM@entry{id=17,dest={73756273656374696F6E2E362E312E33},srcline={82}}{57697373656E73676577696E6E}
\citation{unity:NetCodeTutorial}
\citation{unity:DOTS}
\BKM@entry{id=18,dest={73656374696F6E2E362E32},srcline={85}}{50726F746F7479702032202D20556E69747920444F54532C2057656220536F636B657473}
\BKM@entry{id=19,dest={73756273656374696F6E2E362E322E31},srcline={86}}{426573636872656962756E67}
\citation{unity:NetCodeTutorial}
\BKM@entry{id=20,dest={73756273656374696F6E2E362E322E32},srcline={88}}{4D65696C656E737465696E65}
\BKM@entry{id=21,dest={73756273656374696F6E2E362E322E33},srcline={90}}{5265736561726368}
\@writefile{toc}{\contentsline {subsection}{\numberline {6.1.2}Research}{17}{subsection.6.1.2}\protected@file@percent }
\@writefile{toc}{\contentsline {subsection}{\numberline {6.1.3}Wissensgewinn}{17}{subsection.6.1.3}\protected@file@percent }
\@writefile{toc}{\contentsline {section}{\numberline {6.2}Prototyp 2 - Unity DOTS, Web Sockets}{17}{section.6.2}\protected@file@percent }
\@writefile{toc}{\contentsline {subsection}{\numberline {6.2.1}Beschreibung}{17}{subsection.6.2.1}\protected@file@percent }
\@writefile{toc}{\contentsline {subsection}{\numberline {6.2.2}Meilensteine}{17}{subsection.6.2.2}\protected@file@percent }
\@writefile{toc}{\contentsline {subsection}{\numberline {6.2.3}Research}{18}{subsection.6.2.3}\protected@file@percent }
\BKM@entry{id=22,dest={73756273656374696F6E2E362E322E34},srcline={134}}{45696E7374656C6C756E672064657320444F54532050726F746F747970656E}
\citation{unity:monob}
\BKM@entry{id=23,dest={73756273656374696F6E2E362E322E35},srcline={142}}{57697373656E676577696E6E756E67}
\@writefile{toc}{\contentsline {subsection}{\numberline {6.2.4}Einstellung des DOTS Prototypen}{19}{subsection.6.2.4}\protected@file@percent }
\@writefile{toc}{\contentsline {subsection}{\numberline {6.2.5}Wissengewinnung}{19}{subsection.6.2.5}\protected@file@percent }
\BKM@entry{id=24,dest={636861707465722E37},srcline={145}}{4461732066696E616C652050726F64756B74202D20696E6B72656D656E74656C6C65722050726F746F747970}
\BKM@entry{id=25,dest={73656374696F6E2E372E31},srcline={146}}{45696E6C656974756E67}
\citation{unity:job}
\citation{unity:burst}
\BKM@entry{id=26,dest={73656374696F6E2E372E32},srcline={155}}{456E7477757266}
\@writefile{toc}{\contentsline {chapter}{\numberline {7}Das finale Produkt - inkrementeller Prototyp}{20}{chapter.7}\protected@file@percent }
\@writefile{lof}{\addvspace {10\p@ }}
\@writefile{lot}{\addvspace {10\p@ }}
\@writefile{lol}{\addvspace {10\p@ }}
\@writefile{toc}{\contentsline {section}{\numberline {7.1}Einleitung}{20}{section.7.1}\protected@file@percent }
\@writefile{toc}{\contentsline {section}{\numberline {7.2}Entwurf}{21}{section.7.2}\protected@file@percent }
\BKM@entry{id=27,dest={73656374696F6E2E372E33},srcline={165}}{546563686E697363686520556D7365747A756E67}
\BKM@entry{id=28,dest={73756273656374696F6E2E372E332E31},srcline={166}}{4175667365747A656E206465732050726F6A656B7473}
\citation{unity:mlapi}
\@writefile{toc}{\contentsline {section}{\numberline {7.3}Technische Umsetzung}{22}{section.7.3}\protected@file@percent }
\@writefile{toc}{\contentsline {subsection}{\numberline {7.3.1}Aufsetzen des Projekts}{22}{subsection.7.3.1}\protected@file@percent }
\@writefile{lof}{\contentsline {figure}{\numberline {7.1}{\ignorespaces Neues Projekt erstellen}}{22}{figure.caption.8}\protected@file@percent }
\newlabel{fig:001createproject}{{7.1}{22}{Neues Projekt erstellen}{figure.caption.8}{}}
\newlabel{fig:001createproject@cref}{{[figure][1][7]7.1}{[1][22][]22}}
\@writefile{lof}{\contentsline {figure}{\numberline {7.2}{\ignorespaces MLAPI Package import}}{23}{figure.caption.9}\protected@file@percent }
\newlabel{fig:002mlapipackageimport}{{7.2}{23}{MLAPI Package import}{figure.caption.9}{}}
\newlabel{fig:002mlapipackageimport@cref}{{[figure][2][7]7.2}{[1][22][]23}}
\@writefile{lof}{\contentsline {figure}{\numberline {7.3}{\ignorespaces Vivox in Explorer}}{23}{figure.caption.10}\protected@file@percent }
\newlabel{fig:002vivoximexplorer}{{7.3}{23}{Vivox in Explorer}{figure.caption.10}{}}
\newlabel{fig:002vivoximexplorer@cref}{{[figure][3][7]7.3}{[1][22][]23}}
\citation{unity:asmdef}
\citation{unity:asmdef}
\citation{unity:asmdef}
\@writefile{lof}{\contentsline {figure}{\numberline {7.4}{\ignorespaces asmdef}}{24}{figure.caption.11}\protected@file@percent }
\newlabel{fig:004asmdef}{{7.4}{24}{asmdef}{figure.caption.11}{}}
\newlabel{fig:004asmdef@cref}{{[figure][4][7]7.4}{[1][24][]24}}
\@writefile{lof}{\contentsline {figure}{\numberline {7.5}{\ignorespaces Projektstruktur}}{25}{figure.caption.12}\protected@file@percent }
\newlabel{fig:005projektstruktur}{{7.5}{25}{Projektstruktur}{figure.caption.12}{}}
\newlabel{fig:005projektstruktur@cref}{{[figure][5][7]7.5}{[1][24][]25}}
\BKM@entry{id=29,dest={73756273656374696F6E2E372E332E32},srcline={210}}{436F64656175737363686E69747465202D204C6F67696B20646572204170706C696B6174696F6E}
\citation{regions:readability}
\@writefile{toc}{\contentsline {subsection}{\numberline {7.3.2}Codeausschnitte - Logik der Applikation}{26}{subsection.7.3.2}\protected@file@percent }
\@writefile{lof}{\contentsline {figure}{\numberline {7.6}{\ignorespaces Game Manager}}{27}{figure.caption.13}\protected@file@percent }
\newlabel{fig:006codegameman}{{7.6}{27}{Game Manager}{figure.caption.13}{}}
\newlabel{fig:006codegameman@cref}{{[figure][6][7]7.6}{[1][27][]27}}
\@writefile{lof}{\contentsline {figure}{\numberline {7.7}{\ignorespaces Connectionsystem}}{27}{figure.caption.14}\protected@file@percent }
\newlabel{fig:007codeconnectionsys}{{7.7}{27}{Connectionsystem}{figure.caption.14}{}}
\newlabel{fig:007codeconnectionsys@cref}{{[figure][7][7]7.7}{[1][27][]27}}
\@writefile{lof}{\contentsline {figure}{\numberline {7.8}{\ignorespaces InputSys}}{28}{figure.caption.15}\protected@file@percent }
\newlabel{fig:008codeinputsys}{{7.8}{28}{InputSys}{figure.caption.15}{}}
\newlabel{fig:008codeinputsys@cref}{{[figure][8][7]7.8}{[1][28][]28}}
\@writefile{lof}{\contentsline {figure}{\numberline {7.9}{\ignorespaces Player}}{29}{figure.caption.16}\protected@file@percent }
\newlabel{fig:009codeplayer}{{7.9}{29}{Player}{figure.caption.16}{}}
\newlabel{fig:009codeplayer@cref}{{[figure][9][7]7.9}{[1][29][]29}}
\@writefile{lof}{\contentsline {figure}{\numberline {7.10}{\ignorespaces Network Window}}{30}{figure.caption.17}\protected@file@percent }
\newlabel{fig:010codenetworkwindow}{{7.10}{30}{Network Window}{figure.caption.17}{}}
\newlabel{fig:010codenetworkwindow@cref}{{[figure][10][7]7.10}{[1][30][]30}}
\@writefile{lof}{\contentsline {figure}{\numberline {7.11}{\ignorespaces transparent window}}{30}{figure.caption.18}\protected@file@percent }
\newlabel{fig:011codetransparent}{{7.11}{30}{transparent window}{figure.caption.18}{}}
\newlabel{fig:011codetransparent@cref}{{[figure][11][7]7.11}{[1][30][]30}}
\@writefile{lof}{\contentsline {figure}{\numberline {7.12}{\ignorespaces Vivox Class}}{31}{figure.caption.19}\protected@file@percent }
\newlabel{fig:012codevivox}{{7.12}{31}{Vivox Class}{figure.caption.19}{}}
\newlabel{fig:012codevivox@cref}{{[figure][12][7]7.12}{[1][30][]31}}
\BKM@entry{id=30,dest={73756273656374696F6E2E372E332E33},srcline={288}}{536F7572636520436F6465202D204769746C6162205265706F7369746F7279}
\@writefile{lof}{\contentsline {figure}{\numberline {7.13}{\ignorespaces Event Interfaces}}{32}{figure.caption.20}\protected@file@percent }
\newlabel{fig:013codeevents}{{7.13}{32}{Event Interfaces}{figure.caption.20}{}}
\newlabel{fig:013codeevents@cref}{{[figure][13][7]7.13}{[1][32][]32}}
\@writefile{toc}{\contentsline {subsection}{\numberline {7.3.3}Source Code - Gitlab Repository}{32}{subsection.7.3.3}\protected@file@percent }
\BKM@entry{id=31,dest={73656374696F6E2E372E34},srcline={292}}{53686F776361736520576F726B2D696E2D50726F6772657373}
\@writefile{toc}{\contentsline {section}{\numberline {7.4}Showcase Work-in-Progress}{33}{section.7.4}\protected@file@percent }
\@writefile{lof}{\contentsline {figure}{\numberline {7.14}{\ignorespaces Screenshot Start}}{33}{figure.caption.21}\protected@file@percent }
\newlabel{fig:014showcase}{{7.14}{33}{Screenshot Start}{figure.caption.21}{}}
\newlabel{fig:014showcase@cref}{{[figure][14][7]7.14}{[1][33][]33}}
\BKM@entry{id=32,dest={73656374696F6E2E372E35},srcline={308}}{4765706C616E7420697374206E6F6368}
\@writefile{lof}{\contentsline {figure}{\numberline {7.15}{\ignorespaces Showcase App}}{34}{figure.caption.22}\protected@file@percent }
\newlabel{fig:015wipapplication}{{7.15}{34}{Showcase App}{figure.caption.22}{}}
\newlabel{fig:015wipapplication@cref}{{[figure][15][7]7.15}{[1][33][]34}}
\@writefile{toc}{\contentsline {section}{\numberline {7.5}Geplant ist noch}{34}{section.7.5}\protected@file@percent }
\BKM@entry{id=33,dest={636861707465722E38},srcline={317}}{536F6E73746967652045696E67657365747A746520546563686E6F6C6F6769656E}
\citation{vs}
\citation{texstudio}
\@writefile{toc}{\contentsline {chapter}{\numberline {8}Sonstige Eingesetzte Technologien}{35}{chapter.8}\protected@file@percent }
\@writefile{lof}{\addvspace {10\p@ }}
\@writefile{lot}{\addvspace {10\p@ }}
\@writefile{lol}{\addvspace {10\p@ }}
\BKM@entry{id=34,dest={636861707465722E39},srcline={325}}{46617A6974}
\bibstyle{abbrvnat}
\bibdata{Literatur_Verzeichnis}
\@writefile{toc}{\contentsline {chapter}{\numberline {9}Fazit}{36}{chapter.9}\protected@file@percent }
\@writefile{lof}{\addvspace {10\p@ }}
\@writefile{lot}{\addvspace {10\p@ }}
\@writefile{lol}{\addvspace {10\p@ }}
\BKM@entry{id=35,dest={636861707465722A2E3233},srcline={1}}{4C69746572617475727665727A656963686E6973}
\bibcite{argyle1979korpersprache}{{1}{1979}{{Argyle}}{{}}}
\bibcite{regions:readability}{{2}{}{{Divine}}{{}}}
\bibcite{sascha_agile}{{3}{2021}{{Hampl}}{{}}}
\bibcite{vrchat_numbers}{{4}{2020}{{Lang}}{{}}}
\bibcite{agile_de}{{5}{2021}{{Lenz}}{{}}}
\bibcite{vs}{{6}{2021}{{Microsoft}}{{}}}
\bibcite{gameprogrammingpatterns}{{7}{}{{Nystrom}}{{}}}
\bibcite{parsec}{{8}{}{{Parsec}}{{}}}
\@writefile{toc}{\contentsline {chapter}{\nonumberline Literaturverzeichnis}{37}{chapter*.23}\protected@file@percent }
\@writefile{lof}{\addvspace {10\p@ }}
\@writefile{lot}{\addvspace {10\p@ }}
\@writefile{lol}{\addvspace {10\p@ }}
\bibcite{parsec:SDK}{{9}{}{{Parsec}}{{}}}
\bibcite{parsecbest}{{10}{2018}{{qwek\_qwek}}{{}}}
\bibcite{unity:burst}{{11}{}{{Technologies}}{{}}}
\bibcite{unity:chooseNetcode}{{12}{}{{Technologies}}{{}}}
\bibcite{unity:hp}{{13}{}{{Technologies}}{{}}}
\bibcite{unity:job}{{14}{}{{Technologies}}{{}}}
\bibcite{unity:mlapi}{{15}{}{{Technologies}}{{}}}
\bibcite{unity:monob}{{16}{}{{Technologies}}{{}}}
\bibcite{unity:packages}{{17}{}{{Technologies}}{{}}}
\bibcite{unity:DOTS}{{18}{2021{}}{{Technologies}}{{}}}
\bibcite{unity:asmdef}{{19}{2021{}}{{Technologies}}{{}}}
\bibcite{vivox}{{20}{2021{}}{{Technologies}}{{}}}
\bibcite{unity:NetCodeTutorial}{{21}{}{{Unity}}{{}}}
\bibcite{texstudio}{{22}{2021}{{van~der Zander}}{{}}}
\bibcite{wiki:abw}{{23}{2020{}}{{Wikipedia}}{{}}}
\bibcite{wiki:rapidp}{{24}{2020{}}{{Wikipedia}}{{}}}
\bibcite{wiki:soa}{{25}{2020{}}{{Wikipedia}}{{}}}
\bibcite{wiki:dod}{{26}{2021{}}{{Wikipedia}}{{}}}
\bibcite{wiki:ecs}{{27}{2021{}}{{Wikipedia}}{{}}}
\BKM@entry{id=36,dest={617070656E6469782E41},srcline={1}}{416E68616E67}
\@writefile{toc}{\contentsline {chapter}{\numberline {A}Anhang}{41}{appendix.A}\protected@file@percent }
\@writefile{lof}{\addvspace {10\p@ }}
\@writefile{lot}{\addvspace {10\p@ }}
\@writefile{lol}{\addvspace {10\p@ }}
\global\csname @altsecnumformattrue\endcsname
\global\@namedef{scr@dte@chapter@lastmaxnumwidth}{17.7461pt}
\global\@namedef{scr@dte@section@lastmaxnumwidth}{22.97781pt}
\global\@namedef{scr@dte@subsection@lastmaxnumwidth}{32.11679pt}
\global\@namedef{scr@dte@figure@lastmaxnumwidth}{28.8528pt}
\@writefile{toc}{\providecommand\tocbasic@end@toc@file{}\tocbasic@end@toc@file}
\@writefile{lof}{\providecommand\tocbasic@end@toc@file{}\tocbasic@end@toc@file}
\gdef \@abspage@last{41}
